{
    "ModemManager.i686": [
        "plasma-nm-mobile-0:5.23.3-2.el8.x86_64"
    ],
    "ModemManager-devel.i686": [
        "kf5-modemmanager-qt-devel-0:5.88.0-1.el8.x86_64"
    ],
    "ModemManager-devel.x86_64": [
        "kf5-modemmanager-qt-devel-0:5.88.0-1.el8.x86_64"
    ],
    "NetworkManager-libnm-devel.i686": [
        "kf5-networkmanager-qt-devel-0:5.88.0-1.el8.x86_64"
    ],
    "NetworkManager-libnm-devel.x86_64": [
        "kf5-networkmanager-qt-devel-0:5.88.0-1.el8.x86_64"
    ],
    "OpenEXR-devel.i686": [
        "OpenImageIO-devel-0:2.1.20.0-1.el8.x86_64"
    ],
    "OpenEXR-devel.x86_64": [
        "OpenImageIO-devel-0:2.1.20.0-1.el8.x86_64"
    ],
    "PackageKit.i686": [
        "PackageKit-Qt5-0:1.0.2-3.el8.x86_64",
        "cros-garcon-0:1.0-0.39.20200806git19eab9e.el8.noarch",
        "plasma-discover-packagekit-0:5.22.5-2.el8.x86_64",
        "plasma-pk-updates-1:0.3.2-11.el8.x86_64"
    ],
    "SDL2.x86_64": [
        "SDL2_net-0:2.0.1-15.el8.x86_64",
        "baresip-sdl-0:2.4.0-1.el8.x86_64",
        "efl-0:1.25.1-9.el8.x86_64",
        "efl-devel-0:1.25.1-9.el8.x86_64",
        "lagrange-0:1.13.5-1.el8.x86_64",
        "libFAudio-0:21.11-1.el8.x86_64",
        "liblove-0:11.3-1.el8.x86_64",
        "libprojectM-0:3.1.12-1.el8.x86_64",
        "love-0:11.3-1.el8.x86_64",
        "mlt-0:6.24.0-4.el8.x86_64",
        "qt5-qtgamepad-0:5.15.2-4.el8.x86_64",
        "tslib-0:1.22-4.el8.x86_64",
        "wine-core-0:6.0.2-1.el8.x86_64"
    ],
    "SDL2-devel.i686": [
        "SDL2_net-devel-0:2.0.1-15.el8.x86_64",
        "efl-devel-0:1.25.1-9.el8.x86_64"
    ],
    "SDL2-devel.x86_64": [
        "SDL2_net-devel-0:2.0.1-15.el8.x86_64",
        "efl-devel-0:1.25.1-9.el8.x86_64"
    ],
    "SuperLU.x86_64": [
        "amg4psblas-serial-0:1.0.0-2.el8.x86_64",
        "armadillo-0:10.8.2-1.el8.x86_64",
        "hypre-0:2.18.1-1.el8.x86_64",
        "mld2p4-serial-0:2.2.2-6.el8.x86_64",
        "petsc-0:3.16.0-4.el8.x86_64"
    ],
    "SuperLU-devel.i686": [
        "armadillo-devel-0:10.8.2-1.el8.x86_64"
    ],
    "SuperLU-devel.x86_64": [
        "armadillo-devel-0:10.8.2-1.el8.x86_64",
        "hypre-devel-0:2.18.1-1.el8.x86_64"
    ],
    "avahi-compat-libdns_sd.x86_64": [
        "barrier-0:2.4.0-1.el8.x86_64",
        "libqxt-qt5-0:0.7.0-0.19.20130718giteaf6872f6ad4.el8.x86_64",
        "mumble-0:1.3.4-4.el8.x86_64",
        "murmur-0:1.3.4-4.el8.x86_64"
    ],
    "avahi-compat-libdns_sd-devel.i686": [
        "libqxt-qt5-devel-0:0.7.0-0.19.20130718giteaf6872f6ad4.el8.x86_64"
    ],
    "avahi-compat-libdns_sd-devel.x86_64": [
        "libqxt-qt5-devel-0:0.7.0-0.19.20130718giteaf6872f6ad4.el8.x86_64"
    ],
    "avahi-devel.i686": [
        "efl-devel-0:1.25.1-9.el8.x86_64",
        "libqxt-qt5-devel-0:0.7.0-0.19.20130718giteaf6872f6ad4.el8.x86_64"
    ],
    "avahi-devel.x86_64": [
        "efl-devel-0:1.25.1-9.el8.x86_64",
        "libqxt-qt5-devel-0:0.7.0-0.19.20130718giteaf6872f6ad4.el8.x86_64"
    ],
    "bind9.16-libs.i686": [
        "bind9.16-devel-32:9.16.23-0.7.el8.i686"
    ],
    "blas-devel.x86_64": [
        "vtk-devel-0:9.0.1-9.el8.x86_64",
        "vtk-mpich-devel-0:9.0.1-9.el8.x86_64",
        "vtk-openmpi-devel-0:9.0.1-9.el8.x86_64"
    ],
    "boost-mpich.x86_64": [
        "python3-espresso-mpich-0:4.1.3-1.el8.x86_64"
    ],
    "boost-openmpi.x86_64": [
        "python3-espresso-openmpi-0:4.1.3-1.el8.x86_64"
    ],
    "boost-python3.x86_64": [
        "airinv-0:1.00.3-1.el8.x86_64",
        "airrac-0:1.00.3-1.el8.x86_64",
        "airtsp-0:1.01.5-1.el8.x86_64",
        "kig-0:21.08.3-1.el8.x86_64",
        "python3-csdiff-0:2.5.0-1.el8.x86_64",
        "python3-dmlite-0:1.15.2-5.el8.x86_64",
        "python3-gfal2-0:1.11.1-1.el8.x86_64",
        "python3-opentrep-0:0.07.7-2.el8.x86_64",
        "python3-rmol-0:1.00.3-1.el8.x86_64",
        "python3-trademgen-0:1.00.4-1.el8.x86_64",
        "rb_libtorrent-python3-0:1.2.6-4.el8.x86_64",
        "rmol-0:1.00.3-1.el8.x86_64",
        "sevmgr-0:1.00.4-1.el8.x86_64",
        "simcrs-0:1.01.3-1.el8.x86_64",
        "simfqt-0:1.00.3-1.el8.x86_64",
        "sourcextractor++-0:0.12-1.el8.x86_64",
        "stdair-0:1.00.8-1.el8.x86_64",
        "trademgen-0:1.00.4-1.el8.x86_64",
        "travelccm-0:1.00.4-1.el8.x86_64"
    ],
    "brotli-devel.i686": [
        "libarrow-devel-0:8.0.0-1.el8.x86_64"
    ],
    "brotli-devel.x86_64": [
        "libarrow-devel-0:8.0.0-1.el8.x86_64"
    ],
    "clucene-core-devel.i686": [
        "sword-devel-0:1.8.1-18.el8.x86_64"
    ],
    "clucene-core-devel.x86_64": [
        "sword-devel-0:1.8.1-18.el8.x86_64"
    ],
    "clutter-devel.i686": [
        "xfdashboard-devel-0:0.8.1-1.el8.x86_64"
    ],
    "clutter-devel.x86_64": [
        "xfdashboard-devel-0:0.8.1-1.el8.x86_64"
    ],
    "compat-guile18.x86_64": [
        "TeXmacs-0:2.1-1.el8.x86_64"
    ],
    "cppcheck.x86_64": [
        "cscppc-0:2.2.0-1.el8.x86_64",
        "kdevelop-9:5.6.2-2.el8.x86_64"
    ],
    "dbus-c++.x86_64": [
        "ffado-0:2.4.4-2.el8.x86_64"
    ],
    "dovecot.i686": [
        "dovecot-fts-xapian-0:1.5.2-1.el8.x86_64"
    ],
    "eigen3-devel.noarch": [
        "ceres-solver-devel-0:1.14.0-4.el8.x86_64",
        "fcl-devel-0:0.6.1-5.el8.x86_64",
        "movit-devel-0:1.6.3-2.el8.x86_64",
        "orocos-kdl-0:1.5.1-2.el8.x86_64",
        "pcl-devel-0:1.11.1-4.el8.x86_64",
        "vtk-devel-0:9.0.1-9.el8.x86_64",
        "vtk-mpich-devel-0:9.0.1-9.el8.x86_64",
        "vtk-openmpi-devel-0:9.0.1-9.el8.x86_64"
    ],
    "elinks.x86_64": [
        "recap-0:2.1.0-6.el8.noarch",
        "xfce4-smartbookmark-plugin-0:0.5.2-3.el8.x86_64"
    ],
    "enca.x86_64": [
        "librcc-0:0.2.12-15.el8.x86_64",
        "librcc-gtk2-0:0.2.12-15.el8.x86_64",
        "librcc-gtk3-0:0.2.12-15.el8.x86_64",
        "qmmp-0:1.4.2-2.el8.x86_64"
    ],
    "file-devel.i686": [
        "radare2-devel-0:5.6.4-1.el8.x86_64"
    ],
    "file-devel.x86_64": [
        "radare2-devel-0:5.6.4-1.el8.x86_64"
    ],
    "flac.x86_64": [
        "flacon-0:9.0.0-1.el8.x86_64",
        "qmmp-0:1.4.2-2.el8.x86_64"
    ],
    "flatpak.i686": [
        "plasma-discover-flatpak-0:5.22.5-2.el8.x86_64",
        "xdg-desktop-portal-kde-0:5.23.3-1.el8.x86_64"
    ],
    "fontawesome-fonts-web.noarch": [
        "python-f5-sdk-doc-0:3.0.21-8.el8.noarch",
        "python3-sphinx_ansible_theme-0:0.3.2-1.el8.noarch"
    ],
    "fuse-sshfs.x86_64": [
        "backintime-common-0:1.3.1-3.el8.noarch",
        "kde-connect-0:21.08.3-2.el8.x86_64",
        "x2goserver-0:4.1.0.3-17.el8.1.x86_64"
    ],
    "gdk-pixbuf2-xlib.x86_64": [
        "progman-0:1.0-1.el8.x86_64",
        "w3m-img-0:0.5.3-55.git20220429.el8.x86_64",
        "xscreensaver-base-1:5.45-5.el8.x86_64",
        "xscreensaver-extras-1:5.45-5.el8.x86_64",
        "xscreensaver-extras-base-1:5.45-5.el8.x86_64",
        "xscreensaver-gl-extras-1:5.45-5.el8.x86_64"
    ],
    "gflags.x86_64": [
        "rocksdb-0:6.26.1-3.el8.x86_64"
    ],
    "gflags-devel.i686": [
        "ceres-solver-devel-0:1.14.0-4.el8.x86_64"
    ],
    "gflags-devel.x86_64": [
        "ceres-solver-devel-0:1.14.0-4.el8.x86_64"
    ],
    "ghostscript-x11.x86_64": [
        "gv-0:3.7.4-25.el8.x86_64"
    ],
    "glade-devel.i686": [
        "libxfce4ui-devel-0:4.16.0-2.el8.x86_64"
    ],
    "glade-devel.x86_64": [
        "libxfce4ui-devel-0:4.16.0-2.el8.x86_64"
    ],
    "glew-devel.x86_64": [
        "avogadro2-libs-devel-0:1.95.1-8.el8.x86_64",
        "vtk-devel-0:9.0.1-9.el8.x86_64",
        "vtk-mpich-devel-0:9.0.1-9.el8.x86_64",
        "vtk-openmpi-devel-0:9.0.1-9.el8.x86_64"
    ],
    "glibmm24-devel.i686": [
        "libxml++-devel-0:2.40.1-10.el8.x86_64",
        "nordugrid-arc-devel-0:6.15.1-1.el8.x86_64"
    ],
    "glibmm24-devel.x86_64": [
        "libxml++-devel-0:2.40.1-10.el8.x86_64",
        "nordugrid-arc-devel-0:6.15.1-1.el8.x86_64"
    ],
    "glibmm24-doc.noarch": [
        "libxml++-doc-0:2.40.1-10.el8.noarch"
    ],
    "glog.x86_64": [
        "ceres-solver-0:1.14.0-4.el8.x86_64"
    ],
    "glog-devel.i686": [
        "ceres-solver-devel-0:1.14.0-4.el8.x86_64"
    ],
    "glog-devel.x86_64": [
        "ceres-solver-devel-0:1.14.0-4.el8.x86_64"
    ],
    "gobject-introspection-devel.i686": [
        "libarrow-glib-devel-0:8.0.0-1.el8.x86_64"
    ],
    "gobject-introspection-devel.x86_64": [
        "libarrow-glib-devel-0:8.0.0-1.el8.x86_64"
    ],
    "google-roboto-slab-fonts.noarch": [
        "python-f5-sdk-doc-0:3.0.21-8.el8.noarch"
    ],
    "gperf.x86_64": [
        "gnulib-devel-0:0-31.20200107git.el8.noarch"
    ],
    "gpgme-devel.i686": [
        "kf5-gpgmepp-devel-0:16.08.3-13.el8.x86_64"
    ],
    "gpgme-devel.x86_64": [
        "kf5-gpgmepp-devel-0:16.08.3-13.el8.x86_64"
    ],
    "gpgmepp-devel.i686": [
        "kf5-libkleo-devel-0:21.08.3-1.el8.x86_64"
    ],
    "gpgmepp-devel.x86_64": [
        "kf5-libkleo-devel-0:21.08.3-1.el8.x86_64"
    ],
    "groff.x86_64": [
        "awscli-0:1.18.156-3.el8.noarch"
    ],
    "gtest.x86_64": [
        "davix-tests-0:0.8.1-1.el8.x86_64",
        "gfal2-tests-0:2.20.5-1.el8.x86_64",
        "srt-0:1.4.1-3.el8.x86_64"
    ],
    "gtest-devel.i686": [
        "highway-devel-0:0.12.2-1.el8.x86_64"
    ],
    "gtest-devel.x86_64": [
        "highway-devel-0:0.12.2-1.el8.x86_64"
    ],
    "gtk-doc.x86_64": [
        "libebml-devel-0:1.3.7-2.el8.x86_64",
        "libmatroska-devel-0:1.5.0-1.el8.x86_64",
        "liboath-doc-0:2.6.2-3.el8.noarch",
        "libpskc-doc-0:2.6.2-3.el8.noarch",
        "xfce4-dev-tools-0:4.16.0-3.el8.x86_64"
    ],
    "gvfs.i686": [
        "lutris-0:0.5.10.1-1.el8.x86_64"
    ],
    "hwloc-devel.i686": [
        "kokkos-devel-0:3.0.00-2.el8.x86_64"
    ],
    "hwloc-devel.x86_64": [
        "kokkos-devel-0:3.0.00-2.el8.x86_64"
    ],
    "infiniband-diags.x86_64": [
        "slurm-0:20.11.9-1.el8.x86_64"
    ],
    "jasper-devel.i686": [
        "g2clib-devel-0:1.6.0-7.el8.x86_64"
    ],
    "jasper-devel.x86_64": [
        "eccodes-devel-0:2.23.0-1.el8.x86_64",
        "g2clib-devel-0:1.6.0-7.el8.x86_64",
        "grib_api-devel-0:1.27.0-6.el8.x86_64"
    ],
    "java-1.8.0-openjdk-devel-fastdebug.x86_64": [
        "pcl-tools-0:1.11.1-4.el8.x86_64",
        "vtk-java-0:9.0.1-9.el8.x86_64",
        "vtk-mpich-java-0:9.0.1-9.el8.x86_64",
        "vtk-openmpi-java-0:9.0.1-9.el8.x86_64"
    ],
    "java-1.8.0-openjdk-devel-slowdebug.x86_64": [
        "pcl-tools-0:1.11.1-4.el8.x86_64",
        "vtk-java-0:9.0.1-9.el8.x86_64",
        "vtk-mpich-java-0:9.0.1-9.el8.x86_64",
        "vtk-openmpi-java-0:9.0.1-9.el8.x86_64"
    ],
    "java-1.8.0-openjdk-fastdebug.x86_64": [
        "pcl-tools-0:1.11.1-4.el8.x86_64",
        "vtk-java-0:9.0.1-9.el8.x86_64",
        "vtk-mpich-java-0:9.0.1-9.el8.x86_64",
        "vtk-openmpi-java-0:9.0.1-9.el8.x86_64"
    ],
    "java-1.8.0-openjdk-headless-fastdebug.x86_64": [
        "collectd-java-0:5.9.0-5.el8.x86_64",
        "pcl-tools-0:1.11.1-4.el8.x86_64",
        "portmidi-tools-0:217-30.el8.x86_64",
        "syslog-ng-java-0:3.23.1-2.el8.x86_64",
        "vtk-java-0:9.0.1-9.el8.x86_64",
        "vtk-mpich-java-0:9.0.1-9.el8.x86_64",
        "vtk-openmpi-java-0:9.0.1-9.el8.x86_64"
    ],
    "java-1.8.0-openjdk-headless-slowdebug.x86_64": [
        "collectd-java-0:5.9.0-5.el8.x86_64",
        "pcl-tools-0:1.11.1-4.el8.x86_64",
        "portmidi-tools-0:217-30.el8.x86_64",
        "syslog-ng-java-0:3.23.1-2.el8.x86_64",
        "vtk-java-0:9.0.1-9.el8.x86_64",
        "vtk-mpich-java-0:9.0.1-9.el8.x86_64",
        "vtk-openmpi-java-0:9.0.1-9.el8.x86_64"
    ],
    "java-1.8.0-openjdk-slowdebug.x86_64": [
        "pcl-tools-0:1.11.1-4.el8.x86_64",
        "vtk-java-0:9.0.1-9.el8.x86_64",
        "vtk-mpich-java-0:9.0.1-9.el8.x86_64",
        "vtk-openmpi-java-0:9.0.1-9.el8.x86_64"
    ],
    "json-c-devel.i686": [
        "bind9.16-devel-32:9.16.23-0.7.el8.i686",
        "libstorj-devel-0:1.0.3-6.el8.x86_64",
        "riemann-c-client-devel-0:1.9.0-13.el8.x86_64",
        "ultimarc-devel-0:1.2.0-1.el8.x86_64"
    ],
    "json-c-devel.x86_64": [
        "bind9.16-devel-32:9.16.23-0.7.el8.x86_64",
        "libstorj-devel-0:1.0.3-6.el8.x86_64",
        "riemann-c-client-devel-0:1.9.0-13.el8.x86_64",
        "ultimarc-devel-0:1.2.0-1.el8.x86_64"
    ],
    "ladspa.x86_64": [
        "lsp-plugins-ladspa-0:1.1.13-1.el8.x86_64",
        "rubberband-0:1.9.0-1.el8.x86_64"
    ],
    "lapack-devel.i686": [
        "armadillo-devel-0:10.8.2-1.el8.x86_64",
        "mlpack-devel-0:3.4.2-16.el8.x86_64"
    ],
    "lapack-devel.x86_64": [
        "armadillo-devel-0:10.8.2-1.el8.x86_64",
        "mlpack-devel-0:3.4.2-16.el8.x86_64",
        "vtk-devel-0:9.0.1-9.el8.x86_64",
        "vtk-mpich-devel-0:9.0.1-9.el8.x86_64",
        "vtk-openmpi-devel-0:9.0.1-9.el8.x86_64"
    ],
    "lensfun.x86_64": [
        "darktable-0:3.8.1-2.el8.x86_64"
    ],
    "libGLEW.x86_64": [
        "OpenColorIO-tools-0:1.1.1-8.el8.x86_64",
        "avogadro2-libs-0:1.95.1-8.el8.x86_64",
        "libslopy-0:7.6-5.el8.x86_64",
        "paraview-0:5.9.1-2.el8.x86_64",
        "paraview-mpich-0:5.9.1-2.el8.x86_64",
        "paraview-mpich-devel-0:5.9.1-2.el8.x86_64",
        "paraview-openmpi-0:5.9.1-2.el8.x86_64",
        "paraview-openmpi-devel-0:5.9.1-2.el8.x86_64",
        "pcl-0:1.11.1-4.el8.x86_64",
        "pcl-tools-0:1.11.1-4.el8.x86_64",
        "python3-vtk-0:9.0.1-9.el8.x86_64",
        "python3-vtk-mpich-0:9.0.1-9.el8.x86_64",
        "python3-vtk-openmpi-0:9.0.1-9.el8.x86_64",
        "root-graf3d-gl-0:6.26.02-1.el8.x86_64",
        "slop-0:7.6-5.el8.x86_64",
        "vtk-0:9.0.1-9.el8.x86_64",
        "vtk-devel-0:9.0.1-9.el8.x86_64",
        "vtk-java-0:9.0.1-9.el8.x86_64",
        "vtk-mpich-0:9.0.1-9.el8.x86_64",
        "vtk-mpich-devel-0:9.0.1-9.el8.x86_64",
        "vtk-mpich-java-0:9.0.1-9.el8.x86_64",
        "vtk-mpich-qt-0:9.0.1-9.el8.x86_64",
        "vtk-openmpi-0:9.0.1-9.el8.x86_64",
        "vtk-openmpi-devel-0:9.0.1-9.el8.x86_64",
        "vtk-openmpi-java-0:9.0.1-9.el8.x86_64",
        "vtk-openmpi-qt-0:9.0.1-9.el8.x86_64",
        "vtk-qt-0:9.0.1-9.el8.x86_64",
        "vtk-testing-0:9.0.1-9.el8.x86_64"
    ],
    "libaec.x86_64": [
        "Field3D-0:1.7.2-16.el8.x86_64",
        "OpenImageIO-0:2.1.20.0-1.el8.x86_64",
        "armadillo-0:10.8.2-1.el8.x86_64",
        "cgnslib-0:3.4.0-3.el8.x86_64",
        "eccodes-0:2.23.0-1.el8.x86_64",
        "gdl-0:0.9.9-20.20190915git2870075.el8.x86_64",
        "hdf5-0:1.10.5-4.el8.x86_64",
        "hdf5-mpich-0:1.10.5-4.el8.x86_64",
        "hdf5-openmpi-0:1.10.5-4.el8.x86_64",
        "lammps-0:20190807-2.el8.x86_64",
        "lammps-mpich-0:20190807-2.el8.x86_64",
        "lammps-openmpi-0:20190807-2.el8.x86_64",
        "netcdf-0:4.7.0-2.el8.x86_64",
        "netcdf-devel-0:4.7.0-2.el8.x86_64",
        "netcdf-mpich-0:4.7.0-2.el8.x86_64",
        "netcdf-mpich-devel-0:4.7.0-2.el8.x86_64",
        "netcdf-openmpi-0:4.7.0-2.el8.x86_64",
        "netcdf-openmpi-devel-0:4.7.0-2.el8.x86_64",
        "python3-espresso-mpich-0:4.1.3-1.el8.x86_64",
        "python3-espresso-openmpi-0:4.1.3-1.el8.x86_64",
        "python3-gdl-0:0.9.9-20.20190915git2870075.el8.x86_64",
        "slurm-0:20.11.9-1.el8.x86_64",
        "votca-csg-libs-0:1.6.4-1.el8.x86_64",
        "votca-xtp-0:1.6.4-1.el8.x86_64",
        "votca-xtp-libs-0:1.6.4-1.el8.x86_64"
    ],
    "libaec-devel.x86_64": [
        "hdf5-devel-0:1.10.5-4.el8.x86_64",
        "hdf5-mpich-devel-0:1.10.5-4.el8.x86_64",
        "hdf5-openmpi-devel-0:1.10.5-4.el8.x86_64"
    ],
    "libarchive-devel.i686": [
        "tilibs-devel-0:1.19-3.20220202git8aae708.el8.x86_64"
    ],
    "libarchive-devel.x86_64": [
        "tilibs-devel-0:1.19-3.20220202git8aae708.el8.x86_64",
        "vtk-devel-0:9.0.1-9.el8.x86_64",
        "vtk-mpich-devel-0:9.0.1-9.el8.x86_64",
        "vtk-openmpi-devel-0:9.0.1-9.el8.x86_64"
    ],
    "libdap.x86_64": [
        "gdal-0:3.0.4-11.el8.x86_64",
        "gdal-java-0:3.0.4-11.el8.x86_64",
        "gdal-libs-0:3.0.4-11.el8.x86_64",
        "gdal-perl-0:3.0.4-11.el8.x86_64"
    ],
    "libdb-cxx.x86_64": [
        "nordugrid-arc-0:6.15.1-1.el8.x86_64",
        "nordugrid-arc-arex-0:6.15.1-1.el8.x86_64",
        "nordugrid-arc-client-0:6.15.1-1.el8.x86_64",
        "nordugrid-arc-gridftpd-0:6.15.1-1.el8.x86_64",
        "nordugrid-arc-plugins-arcrest-0:6.15.1-1.el8.x86_64",
        "nordugrid-arc-plugins-gridftpjob-0:6.15.1-1.el8.x86_64",
        "nordugrid-arc-plugins-internal-0:6.15.1-1.el8.x86_64",
        "nordugrid-arc-plugins-needed-0:6.15.1-1.el8.x86_64",
        "nordugrid-arc-plugins-python-0:6.15.1-1.el8.x86_64",
        "nordugrid-arc-test-utils-0:6.15.1-1.el8.x86_64",
        "python3-nordugrid-arc-0:6.15.1-1.el8.x86_64"
    ],
    "libedit-devel.i686": [
        "llvm5.0-devel-0:5.0.1-7.el8.x86_64",
        "llvm6.0-devel-0:6.0.1-7.el8.x86_64",
        "llvm7.0-devel-0:7.0.1-7.el8.x86_64"
    ],
    "libedit-devel.x86_64": [
        "llvm5.0-devel-0:5.0.1-7.el8.x86_64",
        "llvm6.0-devel-0:6.0.1-7.el8.x86_64",
        "llvm7.0-devel-0:7.0.1-7.el8.x86_64"
    ],
    "libidn-devel.i686": [
        "loudmouth-devel-0:1.5.3-9.el8.x86_64"
    ],
    "libidn-devel.x86_64": [
        "gloox-devel-1:1.0.23-1.el8.x86_64",
        "loudmouth-devel-0:1.5.3-9.el8.x86_64"
    ],
    "libinput-devel.i686": [
        "efl-devel-0:1.25.1-9.el8.x86_64"
    ],
    "libinput-devel.x86_64": [
        "efl-devel-0:1.25.1-9.el8.x86_64"
    ],
    "libmaxminddb-devel.i686": [
        "bind9.16-devel-32:9.16.23-0.7.el8.i686"
    ],
    "libmaxminddb-devel.x86_64": [
        "bind9.16-devel-32:9.16.23-0.7.el8.x86_64"
    ],
    "libmemcached-devel.i686": [
        "proftpd-devel-0:1.3.6e-4.el8.x86_64"
    ],
    "libmemcached-devel.x86_64": [
        "proftpd-devel-0:1.3.6e-4.el8.x86_64"
    ],
    "libmount-devel.i686": [
        "efl-devel-0:1.25.1-9.el8.x86_64"
    ],
    "libmount-devel.x86_64": [
        "efl-devel-0:1.25.1-9.el8.x86_64"
    ],
    "libogg-devel.i686": [
        "libkate-devel-0:0.4.1-18.el8.x86_64",
        "libopenmpt-devel-0:0.6.3-1.el8.x86_64",
        "opusfile-devel-0:0.11-3.el8.x86_64"
    ],
    "libogg-devel.x86_64": [
        "libkate-devel-0:0.4.1-18.el8.x86_64",
        "libopenmpt-devel-0:0.6.3-1.el8.x86_64",
        "opusfile-devel-0:0.11-3.el8.x86_64",
        "vtk-devel-0:9.0.1-9.el8.x86_64",
        "vtk-mpich-devel-0:9.0.1-9.el8.x86_64",
        "vtk-openmpi-devel-0:9.0.1-9.el8.x86_64"
    ],
    "liboggz.i686": [
        "libkate-utils-0:0.4.1-18.el8.x86_64"
    ],
    "liboggz.x86_64": [
        "libkate-utils-0:0.4.1-18.el8.x86_64"
    ],
    "libpcap-devel.i686": [
        "masscan-0:1.3.2-3.el8.x86_64"
    ],
    "libpcap-devel.x86_64": [
        "masscan-0:1.3.2-3.el8.x86_64"
    ],
    "libproxy-devel.i686": [
        "openconnect-devel-0:8.20-1.el8.x86_64"
    ],
    "libproxy-devel.x86_64": [
        "openconnect-devel-0:8.20-1.el8.x86_64"
    ],
    "libqhull.x86_64": [
        "octave-6:5.2.0-1.el8.x86_64",
        "plplot-libs-0:5.14.0-9.el8.x86_64",
        "python3-matplotlib-0:3.0.3-4.el8.x86_64"
    ],
    "libqhull_p.x86_64": [
        "pcl-0:1.11.1-4.el8.x86_64",
        "pcl-tools-0:1.11.1-4.el8.x86_64"
    ],
    "libsass.x86_64": [
        "sassc-0:3.4.5-2.el8.x86_64"
    ],
    "libsndfile-devel.i686": [
        "efl-devel-0:1.25.1-9.el8.x86_64",
        "libinstpatch-devel-0:1.1.6-2.el8.x86_64"
    ],
    "libsndfile-devel.x86_64": [
        "efl-devel-0:1.25.1-9.el8.x86_64",
        "libinstpatch-devel-0:1.1.6-2.el8.x86_64"
    ],
    "libtheora-devel.x86_64": [
        "vtk-devel-0:9.0.1-9.el8.x86_64",
        "vtk-mpich-devel-0:9.0.1-9.el8.x86_64",
        "vtk-openmpi-devel-0:9.0.1-9.el8.x86_64"
    ],
    "libucil-devel.i686": [
        "libunicapgtk-devel-0:0.9.8-24.el8.x86_64"
    ],
    "libucil-devel.x86_64": [
        "libunicapgtk-devel-0:0.9.8-24.el8.x86_64"
    ],
    "libunicap-devel.i686": [
        "libunicapgtk-devel-0:0.9.8-24.el8.x86_64"
    ],
    "libunicap-devel.x86_64": [
        "libunicapgtk-devel-0:0.9.8-24.el8.x86_64"
    ],
    "libusb-devel.i686": [
        "tilibs-devel-0:1.19-3.20220202git8aae708.el8.x86_64"
    ],
    "libusb-devel.x86_64": [
        "tilibs-devel-0:1.19-3.20220202git8aae708.el8.x86_64"
    ],
    "libuv-devel.i686": [
        "knot-resolver-devel-0:5.5.0-1.el8.x86_64",
        "libstorj-devel-0:1.0.3-6.el8.x86_64",
        "libwebsockets-devel-0:4.0.1-2.el8.x86_64",
        "radare2-devel-0:5.6.4-1.el8.x86_64"
    ],
    "libuv-devel.x86_64": [
        "knot-resolver-devel-0:5.5.0-1.el8.x86_64",
        "libstorj-devel-0:1.0.3-6.el8.x86_64",
        "libwebsockets-devel-0:4.0.1-2.el8.x86_64",
        "radare2-devel-0:5.6.4-1.el8.x86_64"
    ],
    "libvorbis-devel.i686": [
        "libopenmpt-devel-0:0.6.3-1.el8.x86_64"
    ],
    "libvorbis-devel.x86_64": [
        "libopenmpt-devel-0:0.6.3-1.el8.x86_64"
    ],
    "libwnck3-devel.i686": [
        "xfdashboard-devel-0:0.8.1-1.el8.x86_64"
    ],
    "libwnck3-devel.x86_64": [
        "xfdashboard-devel-0:0.8.1-1.el8.x86_64"
    ],
    "libxkbcommon-x11-devel.i686": [
        "efl-devel-0:1.25.1-9.el8.x86_64"
    ],
    "libxkbcommon-x11-devel.x86_64": [
        "efl-devel-0:1.25.1-9.el8.x86_64"
    ],
    "libxklavier-devel.i686": [
        "lightdm-gobject-devel-0:1.30.0-6.el8.x86_64"
    ],
    "libxklavier-devel.x86_64": [
        "lightdm-gobject-devel-0:1.30.0-6.el8.x86_64"
    ],
    "lmdb-devel.i686": [
        "bind9.16-devel-32:9.16.23-0.7.el8.i686",
        "knot-resolver-devel-0:5.5.0-1.el8.x86_64",
        "lmdbxx-devel-0:0.9.14.1-4.20160229git0b43ca8.el8.noarch"
    ],
    "lmdb-devel.x86_64": [
        "bind9.16-devel-32:9.16.23-0.7.el8.x86_64",
        "knot-resolver-devel-0:5.5.0-1.el8.x86_64",
        "lmdbxx-devel-0:0.9.14.1-4.20160229git0b43ca8.el8.noarch"
    ],
    "lua.i686": [
        "Lmod-0:8.2.7-1.el8.x86_64",
        "fennel-0:1.1.0-1.el8.noarch",
        "lsyncd-0:2.2.2-9.el8.x86_64",
        "lua-alt-getopt-0:0.8.0-1.el8.noarch",
        "lua-prelude-0:5.2.0-1.el8.x86_64",
        "luarocks-0:3.5.0-1.el8.noarch",
        "plplot-lua-0:5.14.0-9.el8.x86_64",
        "prosody-0:0.11.13-1.el8.x86_64",
        "uwsgi-plugin-lua-0:2.0.20-1.el8.x86_64"
    ],
    "lua-filesystem.x86_64": [
        "Lmod-0:8.2.7-1.el8.x86_64",
        "prosody-0:0.11.13-1.el8.x86_64"
    ],
    "lua-posix.x86_64": [
        "Lmod-0:8.2.7-1.el8.x86_64",
        "lua-readline-0:3.0-1.el8.x86_64"
    ],
    "lynx.x86_64": [
        "xfce4-smartbookmark-plugin-0:0.5.2-3.el8.x86_64"
    ],
    "meson.noarch": [
        "kdevelop-9:5.6.2-2.el8.x86_64"
    ],
    "metis.x86_64": [
        "MUMPS-0:5.3.5-1.el8.x86_64",
        "MUMPS-examples-0:5.3.5-1.el8.x86_64",
        "MUMPS-mpich-0:5.3.5-1.el8.x86_64",
        "MUMPS-mpich-examples-0:5.3.5-1.el8.x86_64",
        "MUMPS-openmp-0:5.3.5-1.el8.x86_64",
        "MUMPS-openmp-examples-0:5.3.5-1.el8.x86_64",
        "MUMPS-openmpi-0:5.3.5-1.el8.x86_64",
        "MUMPS-openmpi-examples-0:5.3.5-1.el8.x86_64",
        "amg4psblas-mpich-0:1.0.0-2.el8.x86_64",
        "amg4psblas-openmpi-0:1.0.0-2.el8.x86_64",
        "amg4psblas-serial-0:1.0.0-2.el8.x86_64",
        "petsc-0:3.16.0-4.el8.x86_64",
        "petsc-mpich-0:3.16.0-4.el8.x86_64",
        "petsc-openmpi-0:3.16.0-4.el8.x86_64",
        "psblas3-mpich-0:3.7.0.1-2.el8.x86_64",
        "psblas3-openmpi-0:3.7.0.1-2.el8.x86_64",
        "psblas3-serial-0:3.7.0.1-2.el8.x86_64"
    ],
    "mingw32-crt.noarch": [
        "mingw32-libidn2-0:2.3.2-1.el8.noarch"
    ],
    "mingw32-filesystem.noarch": [
        "mingw32-libidn2-0:2.3.2-1.el8.noarch"
    ],
    "mingw32-gcc.x86_64": [
        "mingw32-libidn2-0:2.3.2-1.el8.noarch"
    ],
    "mingw32-pkg-config.x86_64": [
        "mingw32-libidn2-0:2.3.2-1.el8.noarch"
    ],
    "mingw64-crt.noarch": [
        "mingw64-libidn2-0:2.3.2-1.el8.noarch"
    ],
    "mingw64-filesystem.noarch": [
        "mingw64-libidn2-0:2.3.2-1.el8.noarch"
    ],
    "mingw64-pkg-config.x86_64": [
        "mingw64-libidn2-0:2.3.2-1.el8.noarch"
    ],
    "mpg123-devel.i686": [
        "libopenmpt-devel-0:0.6.3-1.el8.x86_64"
    ],
    "mpg123-devel.x86_64": [
        "libopenmpt-devel-0:0.6.3-1.el8.x86_64"
    ],
    "nautilus.i686": [
        "kde-connect-nautilus-0:21.08.3-2.el8.x86_64",
        "nautilus-python-0:1.2.3-6.el8.x86_64",
        "nextcloud-client-nautilus-0:3.2.4-3.el8.x86_64"
    ],
    "ocaml-compiler-libs.x86_64": [
        "ocaml-camlp5-0:7.08-0.5.git9b9eb124c.el8.x86_64",
        "ocaml-migrate-parsetree-0:1.4.0-4.el8.x86_64",
        "ocaml-ppx-tools-versioned-0:5.2.3-2.el8.x86_64",
        "ocaml-sedlex-0:2.1-3.el8.x86_64"
    ],
    "ocaml-findlib.x86_64": [
        "coccinelle-0:1.0.7-8.el8.x86_64",
        "ocaml-menhir-devel-0:20190626-4.el8.x86_64"
    ],
    "ocaml-runtime.x86_64": [
        "coccinelle-0:1.0.7-8.el8.x86_64",
        "ocaml-camlidl-0:1.05-54.el8.x86_64",
        "ocaml-camlp5-0:7.08-0.5.git9b9eb124c.el8.x86_64",
        "ocaml-camlp5-devel-0:7.08-0.5.git9b9eb124c.el8.x86_64",
        "ocaml-dune-0:1.11.0-4.el8.x86_64",
        "ocaml-gen-0:0.5.1-11.el8.x86_64",
        "ocaml-menhir-0:20190626-4.el8.x86_64",
        "ocaml-migrate-parsetree-0:1.4.0-4.el8.x86_64",
        "ocaml-ounit-0:2.0.8-10.el8.x86_64",
        "ocaml-pcre-0:7.2.3-19.el8.x86_64",
        "ocaml-plplot-0:5.14.0-9.el8.x86_64",
        "ocaml-ppx-derivers-0:1.2.1-6.el8.x86_64",
        "ocaml-ppx-tools-versioned-0:5.2.3-2.el8.x86_64",
        "ocaml-ptmap-0:2.0.4-4.el8.x86_64",
        "ocaml-qcheck-0:0.10-4.el8.x86_64",
        "ocaml-qcheck-devel-0:0.10-4.el8.x86_64",
        "ocaml-qtest-0:2.9-7.el8.x86_64",
        "ocaml-result-0:1.2-14.el8.x86_64",
        "ocaml-sedlex-0:2.1-3.el8.x86_64",
        "ocaml-sha-0:1.12-7.el8.x86_64",
        "ocaml-xml-light-0:2.3-0.37.svn234.el8.x86_64"
    ],
    "ocl-icd-devel.x86_64": [
        "scorep-0:6.0-17.el8.x86_64"
    ],
    "openblas-devel.i686": [
        "R-core-devel-0:4.1.3-1.el8.x86_64",
        "armadillo-devel-0:10.8.2-1.el8.x86_64",
        "ga-mpich-devel-0:5.7.2-3.el8.x86_64",
        "ga-mpich-static-0:5.7.2-3.el8.x86_64",
        "ga-openmpi-devel-0:5.7.2-3.el8.x86_64",
        "ga-openmpi-static-0:5.7.2-3.el8.x86_64"
    ],
    "openblas-devel.x86_64": [
        "R-core-devel-0:4.1.3-1.el8.x86_64",
        "armadillo-devel-0:10.8.2-1.el8.x86_64",
        "ga-mpich-devel-0:5.7.2-3.el8.x86_64",
        "ga-mpich-static-0:5.7.2-3.el8.x86_64",
        "ga-openmpi-devel-0:5.7.2-3.el8.x86_64",
        "ga-openmpi-static-0:5.7.2-3.el8.x86_64",
        "hypre-devel-0:2.18.1-1.el8.x86_64",
        "hypre-mpich-devel-0:2.18.1-1.el8.x86_64",
        "hypre-openmpi-devel-0:2.18.1-1.el8.x86_64",
        "iml-devel-0:1.0.5-31.el8.x86_64",
        "octave-devel-6:5.2.0-1.el8.x86_64",
        "qrupdate-devel-0:1.1.2-18.el8.x86_64"
    ],
    "openblas-openmp.x86_64": [
        "MUMPS-openmp-0:5.3.5-1.el8.x86_64",
        "MUMPS-openmp-examples-0:5.3.5-1.el8.x86_64",
        "SuperLUMT-0:3.1.0-24.el8.x86_64",
        "SuperLUMT-complex-0:3.1.0-24.el8.x86_64",
        "SuperLUMT-complex16-0:3.1.0-24.el8.x86_64",
        "SuperLUMT-double-0:3.1.0-24.el8.x86_64",
        "armadillo-0:10.8.2-1.el8.x86_64",
        "sundials-0:5.8.0-3.el8.x86_64",
        "sundials-devel-0:5.8.0-3.el8.x86_64",
        "sundials-mpich-0:5.8.0-3.el8.x86_64",
        "sundials-mpich-devel-0:5.8.0-3.el8.x86_64",
        "sundials-openmpi-0:5.8.0-3.el8.x86_64",
        "sundials-openmpi-devel-0:5.8.0-3.el8.x86_64"
    ],
    "openblas-openmp64.x86_64": [
        "SuperLUMT64-0:3.1.0-24.el8.x86_64",
        "SuperLUMT64-complex-0:3.1.0-24.el8.x86_64",
        "SuperLUMT64-complex16-0:3.1.0-24.el8.x86_64",
        "SuperLUMT64-double-0:3.1.0-24.el8.x86_64"
    ],
    "openblas-serial64.x86_64": [
        "petsc64-0:3.16.0-4.el8.x86_64"
    ],
    "openblas-threads64_.x86_64": [
        "arpack-0:3.7.0-1.el8.x86_64"
    ],
    "openldap-servers.x86_64": [
        "bdii-0:5.2.26-8.el8.noarch",
        "nordugrid-arc-infosys-ldap-0:6.15.1-1.el8.noarch"
    ],
    "opensp.x86_64": [
        "libofx-0:0.9.13-4.el8.x86_64"
    ],
    "opus-devel.i686": [
        "opusfile-devel-0:0.11-3.el8.x86_64"
    ],
    "opus-devel.x86_64": [
        "opusfile-devel-0:0.11-3.el8.x86_64"
    ],
    "pcsc-lite-devel.i686": [
        "openconnect-devel-0:8.20-1.el8.x86_64",
        "yubihsm-shell-devel-0:2.3.1-1.el8.x86_64"
    ],
    "pcsc-lite-devel.x86_64": [
        "openconnect-devel-0:8.20-1.el8.x86_64",
        "yubihsm-shell-devel-0:2.3.1-1.el8.x86_64"
    ],
    "perl-AnyEvent.x86_64": [
        "perl-AnyEvent-AIO-0:1.1-31.el8.noarch",
        "perl-AnyEvent-BDB-0:1.1-34.el8.noarch",
        "perl-AnyEvent-CacheDNS-0:0.08-17.el8.noarch",
        "perl-AnyEvent-HTTP-0:2.24-5.el8.noarch",
        "perl-Coro-0:6.570-2.el8.x86_64",
        "perl-VM-EC2-0:1.28-16.el8.noarch"
    ],
    "perl-B-Hooks-EndOfScope.noarch": [
        "perl-Devel-Declare-0:0.006019-14.el8.x86_64",
        "perl-namespace-sweep-0:0.006-10.el8.noarch"
    ],
    "perl-Capture-Tiny.noarch": [
        "kpcli-0:3.6-2.el8.noarch",
        "perl-Crypt-Random-Source-0:0.14-11.el8.noarch",
        "perl-Test-Output-0:1.03.1-9.el8.noarch",
        "perl-Test-Pod-LinkCheck-0:0.008-20.el8.noarch",
        "perl-Test-Script-0:1.25-2.el8.noarch",
        "perl-X2Go-Server-0:4.1.0.3-17.el8.1.noarch",
        "perl-perl5i-0:2.13.2-12.el8.x86_64"
    ],
    "perl-Class-Accessor.noarch": [
        "perl-Array-Diff-1:0.09-1.el8.noarch",
        "perl-Authen-Simple-0:0.5-22.el8.noarch",
        "perl-Class-DBI-0:3.0.17-38.el8.noarch",
        "perl-HTTP-Request-AsCGI-0:1.2-29.el8.noarch",
        "perl-Module-CPANTS-Analyse-0:0.99-1.el8.noarch",
        "perl-Monitoring-Plugin-0:0.40-1.el8.noarch",
        "perl-Net-OAuth-0:0.28-20.el8.noarch",
        "perl-Text-RecordParser-0:1.6.5-18.el8.noarch"
    ],
    "perl-Class-Data-Inheritable.noarch": [
        "perl-Authen-Simple-0:0.5-22.el8.noarch",
        "perl-Class-DBI-0:3.0.17-38.el8.noarch",
        "perl-DBIx-Class-0:0.082842-4.el8.noarch",
        "perl-Ima-DBI-0:0.35-30.el8.noarch",
        "perl-Net-OAuth-0:0.28-20.el8.noarch"
    ],
    "perl-Class-Method-Modifiers.noarch": [
        "perl-Moo-0:2.003004-7.el8.noarch",
        "perl-MooX-HandlesVia-0:0.001008-16.el8.noarch",
        "perl-MooX-StrictConstructor-0:0.011-7.el8.noarch",
        "perl-Pod-Readme-0:1.2.3-1.el8.noarch"
    ],
    "perl-Class-Singleton.noarch": [
        "mysql-mmm-monitor-0:2.2.1-25.el8.noarch"
    ],
    "perl-Class-Tiny.noarch": [
        "perl-Devel-PartialDump-0:0.20-8.el8.noarch",
        "perl-Pod-Spell-0:1.20-13.el8.noarch"
    ],
    "perl-Class-XSAccessor.x86_64": [
        "perl-Class-Accessor-Grouped-0:0.10014-10.el8.noarch",
        "perl-Devel-Cover-0:1.33-4.el8.x86_64",
        "perl-File-Find-Object-Rule-0:0.0311-1.el8.noarch"
    ],
    "perl-Clone.x86_64": [
        "kpcli-0:3.6-2.el8.noarch",
        "perl-CSS-Tiny-0:1.20-11.el8.noarch",
        "perl-Class-DBI-0:3.0.17-38.el8.noarch",
        "perl-DBIx-Class-0:0.082842-4.el8.noarch",
        "perl-DateTime-Format-Natural-0:1.09-2.el8.noarch",
        "perl-Hash-Merge-0:0.300-8.el8.noarch",
        "perl-Hash-Merge-Simple-0:0.051-15.el8.noarch",
        "perl-PPI-0:1.270-1.el8.noarch",
        "perl-SQL-Statement-0:1.412-13.el8.noarch",
        "perl-Validation-Class-0:7.900057-11.el8.noarch"
    ],
    "perl-Data-UUID.x86_64": [
        "perl-Crypt-PWSafe3-0:1.22-14.el8.noarch",
        "perl-Data-GUID-0:0.049-13.el8.noarch",
        "perl-Object-ID-0:0.1.2-18.el8.noarch",
        "perl-Ocsinventory-Agent-0:2.9.3-1.el8.noarch",
        "perl-RDF-Query-0:2.918-11.el8.noarch",
        "perl-RDF-Trine-0:1.019-8.el8.noarch"
    ],
    "perl-DateTime.x86_64": [
        "munin-0:2.0.66-1.el8.noarch",
        "perl-DateTime-Calendar-Mayan-0:0.0601-27.el8.noarch",
        "perl-DateTime-Event-ICal-0:0.13-14.el8.noarch",
        "perl-DateTime-Event-Recurrence-0:0.19-11.el8.noarch",
        "perl-DateTime-Format-DateParse-0:0.05-24.el8.noarch",
        "perl-DateTime-Format-Epoch-0:0.16-9.el8.noarch",
        "perl-DateTime-Format-Excel-1:0.31-27.el8.noarch",
        "perl-DateTime-Format-Flexible-0:0.34-1.el8.noarch",
        "perl-DateTime-Format-Flexible-tests-0:0.34-1.el8.noarch",
        "perl-DateTime-Format-ICal-0:0.09-33.el8.noarch",
        "perl-DateTime-Format-MySQL-0:0.06-12.el8.noarch",
        "perl-DateTime-Format-Natural-0:1.09-2.el8.noarch",
        "perl-DateTime-Format-Pg-0:0.16013-12.el8.noarch",
        "perl-DateTime-Format-RFC3339-0:1.2.0-13.el8.noarch",
        "perl-DateTime-Format-W3CDTF-0:0.07-9.el8.noarch",
        "perl-DateTime-Set-0:0.3900-12.el8.noarch",
        "perl-DateTimeX-Easy-0:0.089-26.el8.noarch",
        "perl-Finance-Quote-0:1.51-2.el8.noarch",
        "perl-MaxMind-DB-Common-0:0.040001-7.el8.noarch",
        "perl-MaxMind-DB-Reader-0:1.000014-6.el8.noarch",
        "perl-MooseX-Types-DateTime-0:0.13-15.el8.noarch",
        "perl-MooseX-Types-DateTime-MoreCoercions-0:0.15-15.el8.noarch",
        "perl-RDF-Query-0:2.918-11.el8.noarch",
        "perl-Types-DateTime-0:0.002-5.el8.noarch",
        "perl-Web-ID-0:1.927-4.el8.noarch",
        "perl-perl5i-0:2.13.2-12.el8.x86_64"
    ],
    "perl-DateTime-Format-Builder.noarch": [
        "perl-DateTime-Format-Flexible-0:0.34-1.el8.noarch",
        "perl-DateTime-Format-MySQL-0:0.06-12.el8.noarch",
        "perl-DateTime-Format-Pg-0:0.16013-12.el8.noarch",
        "perl-DateTime-Format-SQLite-0:0.11-28.el8.noarch"
    ],
    "perl-DateTime-Format-HTTP.noarch": [
        "perl-Net-Amazon-S3-0:0.98-1.el8.noarch"
    ],
    "perl-DateTime-Format-ISO8601.noarch": [
        "perl-VM-EC2-Security-CredentialCache-0:0.25-16.el8.noarch"
    ],
    "perl-DateTime-Format-Mail.noarch": [
        "perl-XML-RSS-0:1.61-1.el8.noarch"
    ],
    "perl-DateTime-Format-Strptime.noarch": [
        "perl-DBIx-Class-0:0.082842-4.el8.noarch",
        "perl-Finance-Quote-0:1.51-2.el8.noarch"
    ],
    "perl-DateTime-Locale.noarch": [
        "perl-MooseX-Types-DateTime-0:0.13-15.el8.noarch",
        "perl-Types-DateTime-0:0.002-5.el8.noarch"
    ],
    "perl-DateTime-TimeZone.noarch": [
        "perl-DateTime-Format-DateParse-0:0.05-24.el8.noarch",
        "perl-DateTime-Format-Flexible-0:0.34-1.el8.noarch",
        "perl-DateTime-Format-Flexible-tests-0:0.34-1.el8.noarch",
        "perl-DateTime-Format-ICal-0:0.09-33.el8.noarch",
        "perl-DateTime-Format-Natural-0:1.09-2.el8.noarch",
        "perl-DateTime-Format-Pg-0:0.16013-12.el8.noarch",
        "perl-DateTime-Format-W3CDTF-0:0.07-9.el8.noarch",
        "perl-DateTimeX-Easy-0:0.089-26.el8.noarch",
        "perl-MooseX-Types-DateTime-0:0.13-15.el8.noarch",
        "perl-Types-DateTime-0:0.002-5.el8.noarch"
    ],
    "perl-DateTime-TimeZone-Tzfile.noarch": [
        "perl-perl5i-0:2.13.2-12.el8.x86_64"
    ],
    "perl-Devel-CallChecker.x86_64": [
        "perl-Devel-CallParser-0:0.002-20.el8.x86_64"
    ],
    "perl-Devel-Caller.x86_64": [
        "Rex-0:1.13.4-1.el8.noarch"
    ],
    "perl-Devel-CheckLib.noarch": [
        "perl-PDL-tests-0:2.32.0-1.el8.x86_64"
    ],
    "perl-Devel-GlobalDestruction.noarch": [
        "perl-DBIx-Class-0:0.082842-4.el8.noarch",
        "perl-Log-Dispatch-0:2.68-1.el8.noarch",
        "perl-Mail-Box-0:3.008-1.el8.noarch",
        "perl-Moo-0:2.003004-7.el8.noarch",
        "perl-Moose-0:2.2011-9.el8.x86_64",
        "perl-Object-Remote-0:0.004001-4.el8.noarch"
    ],
    "perl-Devel-LexAlias.x86_64": [
        "perl-Lexical-Persistence-0:1.023-17.el8.noarch",
        "perl-Type-Tiny-0:1.004004-2.el8.noarch"
    ],
    "perl-Devel-StackTrace.noarch": [
        "perl-Devel-StackTrace-AsHTML-0:0.15-9.el8.noarch",
        "perl-Devel-StackTrace-WithLexicals-0:2.01-15.el8.noarch",
        "perl-Moose-0:2.2011-9.el8.x86_64",
        "perl-Plack-0:1.0047-7.el8.noarch",
        "perl-Sentry-Raven-0:1.11-2.el8.noarch",
        "perl-Throwable-0:0.200013-12.el8.noarch",
        "perl-Type-Tiny-0:1.004004-2.el8.noarch",
        "perl-true-0:1.0.1-1.el8.x86_64"
    ],
    "perl-Digest-CRC.x86_64": [
        "perl-Authen-DecHpwd-0:2.007-8.el8.x86_64"
    ],
    "perl-Digest-SHA1.x86_64": [
        "ddclient-0:3.9.1-1.el8.noarch",
        "dpkg-perl-0:1.20.9-4.el8.noarch",
        "ipv6calc-ipv6calcweb-0:4.0.1-63.el8.x86_64",
        "mimedefang-0:2.86-1.el8.x86_64",
        "nordugrid-arc-arex-0:6.15.1-1.el8.x86_64",
        "perl-Apache-DBI-0:1.12-19.el8.noarch",
        "perl-Cache-Cache-0:1.08-15.el8.noarch",
        "perl-Crypt-DSA-0:1.17-28.el8.noarch",
        "perl-Crypt-MySQL-0:0.04-8.el8.x86_64",
        "perl-Module-Compile-0:0.38-4.el8.noarch",
        "perl-Module-Signature-0:0.83-5.el8.noarch",
        "perl-Net-SNMP-0:6.0.1-25.el8.1.noarch",
        "perl-UUID-Tiny-0:1.04-18.el8.noarch"
    ],
    "perl-Dist-CheckConflicts.noarch": [
        "perl-Log-Dispatch-0:2.68-1.el8.noarch",
        "perl-Module-Runtime-Conflicts-0:0.003-10.el8.noarch",
        "perl-Moose-0:2.2011-9.el8.x86_64"
    ],
    "perl-DynaLoader-Functions.noarch": [
        "perl-Devel-CallParser-0:0.002-20.el8.x86_64"
    ],
    "perl-Eval-Closure.noarch": [
        "perl-Moose-0:2.2011-9.el8.x86_64"
    ],
    "perl-Exception-Class.noarch": [
        "clusterssh-0:4.16-1.el8.noarch",
        "perl-Exception-Class-TryCatch-0:1.13-16.el8.noarch",
        "perl-PPIx-Utilities-0:1.001000-35.el8.noarch",
        "perl-Perl-Critic-0:1.134-5.el8.noarch",
        "perl-Test-Most-0:0.35-11.el8.noarch"
    ],
    "perl-Exporter-Tiny.noarch": [
        "perl-Shared-Examples-Net-Amazon-S3-0:0.98-1.el8.noarch",
        "perl-Test-Modern-0:0.013-15.el8.noarch",
        "perl-Test-TypeTiny-0:1.004004-2.el8.noarch",
        "perl-Type-Tie-0:0.014-5.el8.noarch",
        "perl-Type-Tiny-0:1.004004-2.el8.noarch",
        "perl-Web-ID-0:1.927-4.el8.noarch",
        "perl-match-simple-0:0.010-4.el8.noarch"
    ],
    "perl-File-BaseDir.noarch": [
        "x2goserver-0:4.1.0.3-17.el8.1.x86_64"
    ],
    "perl-File-Copy-Recursive.noarch": [
        "fusioninventory-agent-task-deploy-0:2.6-1.el8.noarch",
        "imapsync-0:2.140-2.el8.noarch",
        "munin-0:2.0.66-1.el8.noarch",
        "perl-FusionInventory-Agent-0:2.6-1.el8.noarch",
        "perl-Inline-C-tests-0:0.82-1.el8.noarch",
        "perl-Test-mysqld-0:1.0013-1.el8.noarch"
    ],
    "perl-File-Find-Object.noarch": [
        "perl-File-Find-Object-Rule-0:0.0311-1.el8.noarch",
        "perl-Module-CPANTS-Analyse-0:0.99-1.el8.noarch"
    ],
    "perl-File-Find-Rule.noarch": [
        "perl-Data-Compare-0:1.26-1.el8.noarch",
        "perl-File-Edit-Portable-0:1.25-1.el8.noarch",
        "perl-File-Find-Rule-Perl-0:1.15-13.el8.noarch",
        "perl-Net-Amazon-S3-0:0.98-1.el8.noarch",
        "perl-Perl-MinimumVersion-0:1.38-20.el8.noarch",
        "perl-Test-Distribution-0:2.00-32.el8.noarch",
        "perl-Test-MinimumVersion-0:0.101082-11.el8.noarch"
    ],
    "perl-File-Remove.noarch": [
        "perl-Mail-Box-0:3.008-1.el8.noarch"
    ],
    "perl-File-chdir.noarch": [
        "perl-perl5i-0:2.13.2-12.el8.x86_64"
    ],
    "perl-HTML-Tree.noarch": [
        "perl-Finance-Quote-0:1.51-2.el8.noarch",
        "perl-HTML-Element-Extended-0:1.18-21.el8.noarch",
        "perl-HTML-Formatter-0:2.16-10.el8.noarch",
        "perl-HTML-TableExtract-0:2.15-9.el8.noarch",
        "perl-HTML-TreeBuilder-XPath-0:0.14-30.el8.noarch",
        "perl-Mail-Message-0:3.008-6.el8.noarch",
        "perl-WWW-Mechanize-0:1.97-1.el8.1.noarch",
        "perl-XML-TreeBuilder-0:5.4-22.el8.noarch"
    ],
    "perl-HTTP-Daemon.noarch": [
        "perl-Frontier-RPC-0:0.07b4p1-36.el8.noarch",
        "perl-FusionInventory-Agent-0:2.6-1.el8.noarch",
        "perl-HTTP-Daemon-SSL-0:1.04-30.el8.noarch",
        "perl-Test-Fake-HTTPD-0:0.09-1.el8.noarch"
    ],
    "perl-IO-String.noarch": [
        "Rex-0:1.13.4-1.el8.noarch",
        "perl-Font-TTF-0:1.06-11.el8.noarch",
        "perl-IO-Handle-Util-0:0.02-5.el8.noarch",
        "perl-PPI-0:1.270-1.el8.noarch",
        "perl-Perl-Critic-0:1.134-5.el8.noarch",
        "perl-Perl-Critic-Pulp-0:99-1.el8.noarch",
        "perl-Pod-MinimumVersion-0:50-26.el8.noarch",
        "perl-thrift-0:0.13.0-2.el8.noarch"
    ],
    "perl-IO-Tty.x86_64": [
        "perl-Expect-0:1.35-10.el8.noarch",
        "perl-Net-OpenSSH-0:0.80-1.el8.noarch",
        "perl-Net-SFTP-Foreign-0:1.90-4.el8.noarch",
        "perl-POE-0:1.368-5.el8.noarch",
        "perl-POE-Test-Loops-0:1.360-18.el8.noarch"
    ],
    "perl-IO-stringy.noarch": [
        "amavis-0:2.12.1-5.el8.noarch",
        "perl-Config-IniFiles-0:3.000002-3.el8.noarch",
        "perl-Convert-TNEF-0:0.18-17.el8.noarch",
        "perl-Image-Info-0:1.41-8.el8.noarch",
        "perl-Mail-Message-0:3.008-6.el8.noarch",
        "perl-Mail-Transport-0:3.004-3.el8.noarch",
        "perl-OLE-Storage_Lite-0:0.19-27.el8.noarch",
        "perl-Parse-DebControl-0:2.005-18.el8.noarch",
        "perl-Text-RecordParser-0:1.6.5-18.el8.noarch"
    ],
    "perl-IPC-Run.noarch": [
        "moreutils-0:0.63-1.el8.x86_64",
        "perl-Crypt-GPG-0:1.64-19.el8.noarch",
        "perl-GraphViz-0:2.24-12.el8.noarch",
        "perl-podlinkcheck-0:15-10.el8.noarch"
    ],
    "perl-IPC-Run3.noarch": [
        "perl-Test-Spelling-0:0.25-1.el8.noarch",
        "psutils-0:2.05-1.el8.noarch"
    ],
    "perl-Import-Into.noarch": [
        "perl-Moo-0:2.003004-7.el8.noarch",
        "perl-MooX-0:0.101-19.el8.noarch",
        "perl-Package-Variant-0:1.003002-15.el8.noarch",
        "perl-Test-Modern-0:0.013-15.el8.noarch",
        "perl-perl5i-0:2.13.2-12.el8.x86_64",
        "perl-utf8-all-0:0.024-7.el8.noarch"
    ],
    "perl-JSON-XS.x86_64": [
        "inxi-0:3.3.16-1.el8.noarch",
        "nordugrid-arc-arex-0:6.15.1-1.el8.x86_64",
        "perl-JSON-Any-0:1.39-14.el8.noarch",
        "perl-MooseX-Types-JSON-0:1.00-17.el8.noarch",
        "perl-Sentry-Raven-0:1.11-2.el8.noarch"
    ],
    "perl-List-MoreUtils.noarch": [
        "dgit-0:9.10-1.el8.noarch",
        "perl-Data-Perl-0:0.002009-17.el8.noarch",
        "perl-DateTime-Format-Flexible-0:0.34-1.el8.noarch",
        "perl-DateTime-Format-Natural-0:1.09-2.el8.noarch",
        "perl-DateTime-Format-Natural-Test-0:1.09-2.el8.noarch",
        "perl-MooseX-NonMoose-0:0.26-15.el8.noarch",
        "perl-PDL-0:2.32.0-1.el8.x86_64",
        "perl-PPIx-Regexp-0:0.068-1.el8.noarch",
        "perl-Perl-Critic-0:1.134-5.el8.noarch",
        "perl-Perl-Critic-Pulp-0:99-1.el8.noarch",
        "perl-RDF-Trine-redis-0:1.019-8.el8.noarch",
        "perl-Statistics-Descriptive-0:3.0702-6.el8.noarch",
        "perl-Test-Perl-Critic-Policy-0:1.134-5.el8.noarch",
        "perl-Text-RecordParser-0:1.6.5-18.el8.noarch",
        "perl-Validation-Class-0:7.900057-11.el8.noarch",
        "perl-Web-ID-0:1.927-4.el8.noarch",
        "perl-perl5i-0:2.13.2-12.el8.x86_64"
    ],
    "perl-Locale-gettext.x86_64": [
        "debbuild-0:20.04.0-1.el8.noarch",
        "debconf-0:1.5.79-1.el8.noarch",
        "dgit-0:9.10-1.el8.noarch"
    ],
    "perl-MIME-Charset.noarch": [
        "perl-MIME-EncWords-0:1.014.3-15.el8.noarch"
    ],
    "perl-MIME-Types.noarch": [
        "perl-Email-MIME-0:1.949-1.el8.noarch",
        "perl-MIME-Lite-0:3.030-16.el8.noarch",
        "perl-Mail-Message-0:3.008-6.el8.noarch",
        "perl-Net-Amazon-S3-0:0.98-1.el8.noarch"
    ],
    "perl-Module-Implementation.noarch": [
        "perl-Class-Load-0:0.25-9.el8.noarch",
        "perl-List-SomeUtils-0:0.58-1.el8.noarch",
        "perl-MaxMind-DB-Reader-0:1.000014-6.el8.noarch",
        "perl-MaxMind-DB-Reader-XS-tests-0:1.000009-1.el8.noarch",
        "perl-MaxMind-DB-Reader-tests-0:1.000014-6.el8.noarch"
    ],
    "perl-Module-Install.noarch": [
        "perl-Module-Install-ExtraTests-0:0.008-23.el8.noarch",
        "perl-Module-Install-Repository-0:0.06-19.el8.noarch",
        "perl-Module-Install-TestBase-0:0.86-24.el8.noarch"
    ],
    "perl-Module-ScanDeps.noarch": [
        "needrestart-0:3.6-3.el8.noarch",
        "perl-PAR-Packer-0:1.052-2.el8.x86_64"
    ],
    "perl-NKF.x86_64": [
        "w3m-0:0.5.3-55.git20220429.el8.x86_64"
    ],
    "perl-Number-Compare.noarch": [
        "perl-File-Find-Object-Rule-0:0.0311-1.el8.noarch"
    ],
    "perl-Package-DeprecationManager.noarch": [
        "perl-Moose-0:2.2011-9.el8.x86_64"
    ],
    "perl-Package-Stash.noarch": [
        "perl-Class-Load-0:0.25-9.el8.noarch",
        "perl-Data-Printer-0:1.000004-4.el8.noarch",
        "perl-Devel-OverloadInfo-0:0.005-7.el8.noarch",
        "perl-Moose-0:2.2011-9.el8.x86_64",
        "perl-Test-CleanNamespaces-0:0.24-6.el8.noarch",
        "perl-namespace-sweep-0:0.006-10.el8.noarch"
    ],
    "perl-Package-Stash-XS.x86_64": [
        "perl-Moose-0:2.2011-9.el8.x86_64"
    ],
    "perl-PadWalker.x86_64": [
        "perl-Data-Dump-Streamer-0:2.40-13.el8.x86_64",
        "perl-Data-Dumper-Names-0:0.03-32.el8.noarch",
        "perl-Devel-ArgNames-0:0.03-19.el8.noarch",
        "perl-Devel-Cycle-0:1.12-16.el8.noarch",
        "perl-Devel-StackTrace-WithLexicals-0:2.01-15.el8.noarch",
        "perl-Lexical-Persistence-0:1.023-17.el8.noarch"
    ],
    "perl-Params-Classify.x86_64": [
        "perl-Authen-Passphrase-0:0.008-2.el8.noarch",
        "perl-Class-Mix-0:0.006-7.el8.noarch",
        "perl-Data-Entropy-0:0.007-11.el8.noarch"
    ],
    "perl-Params-Validate.x86_64": [
        "munin-0:2.0.66-1.el8.noarch",
        "perl-Authen-Credential-0:1.2-1.el8.noarch",
        "perl-Authen-Simple-0:0.5-22.el8.noarch",
        "perl-Authen-Simple-Passwd-0:0.6-26.el8.noarch",
        "perl-Config-Generator-0:1.1-1.el8.noarch",
        "perl-DateTime-Calendar-Mayan-0:0.0601-27.el8.noarch",
        "perl-DateTime-Event-ICal-0:0.13-14.el8.noarch",
        "perl-DateTime-Event-Recurrence-0:0.19-11.el8.noarch",
        "perl-DateTime-Format-Epoch-0:0.16-9.el8.noarch",
        "perl-DateTime-Format-ICal-0:0.09-33.el8.noarch",
        "perl-DateTime-Format-Natural-0:1.09-2.el8.noarch",
        "perl-DateTime-Set-0:0.3900-12.el8.noarch",
        "perl-GeoIP2-0:2.006002-6.el8.noarch",
        "perl-Getopt-Long-Descriptive-0:0.104-1.el8.noarch",
        "perl-Messaging-Message-0:1.7-1.el8.noarch",
        "perl-Monitoring-Plugin-0:0.40-1.el8.noarch",
        "perl-Net-STOMP-Client-0:2.5-1.el8.noarch",
        "perl-No-Worries-0:1.7-1.el8.noarch",
        "perl-URI-FromHash-0:0.05-12.el8.noarch"
    ],
    "perl-Params-ValidationCompiler.noarch": [
        "perl-Log-Dispatch-0:2.68-1.el8.noarch"
    ],
    "perl-Path-Tiny.noarch": [
        "perl-App-Nopaste-0:1.013-4.el8.noarch",
        "perl-Directory-Scratch-0:0.18-17.el8.noarch",
        "perl-MooseX-Types-Path-Tiny-0:0.012-10.el8.noarch",
        "perl-Parse-Gitignore-0:0.04-7.el8.noarch",
        "perl-Pod-Readme-0:1.2.3-1.el8.noarch",
        "perl-Pod-Spell-0:1.20-13.el8.noarch",
        "perl-Types-Path-Tiny-0:0.006-7.el8.noarch",
        "perl-Web-ID-0:1.927-4.el8.noarch",
        "perl-perl5i-0:2.13.2-12.el8.x86_64",
        "smokeping-0:2.8.2-1.el8.noarch"
    ],
    "perl-Perl-Destruct-Level.x86_64": [
        "perl-Test-Valgrind-0:1.19-12.el8.noarch"
    ],
    "perl-PerlIO-utf8_strict.x86_64": [
        "perl-File-Slurper-0:0.012-6.el8.noarch",
        "perl-Mixin-Linewise-0:0.108-15.el8.noarch",
        "perl-utf8-all-0:0.024-7.el8.noarch"
    ],
    "perl-Pod-Coverage.noarch": [
        "perl-Pod-Coverage-Moose-0:0.07-13.el8.noarch",
        "perl-Pod-Coverage-TrustPod-0:0.100005-7.el8.noarch",
        "perl-Test-Distribution-0:2.00-32.el8.noarch"
    ],
    "perl-Readonly.noarch": [
        "imapsync-0:2.140-2.el8.noarch",
        "nagios-plugins-check-updates-0:1.7.10-1.el8.x86_64",
        "perl-PPIx-Utilities-0:1.001000-35.el8.noarch",
        "perl-Perl-Critic-0:1.134-5.el8.noarch",
        "perl-Test-Perl-Critic-Policy-0:1.134-5.el8.noarch",
        "perl-Text-RecordParser-0:1.6.5-18.el8.noarch"
    ],
    "perl-Ref-Util.noarch": [
        "perl-MetaCPAN-Client-0:2.028000-1.el8.noarch",
        "perl-Net-Amazon-S3-0:0.98-1.el8.noarch",
        "perl-Net-Amazon-S3-tests-0:0.98-1.el8.noarch",
        "perl-Shared-Examples-Net-Amazon-S3-0:0.98-1.el8.noarch"
    ],
    "perl-Ref-Util-XS.x86_64": [
        "perl-Type-Tiny-0:1.004004-2.el8.noarch"
    ],
    "perl-Role-Tiny.noarch": [
        "perl-ColorThemeRole-ANSI-0:0.001-2.el8.noarch",
        "perl-Data-Perl-0:0.002009-17.el8.noarch",
        "perl-JSON-Color-0:0.130-3.el8.noarch",
        "perl-MaxMind-DB-Reader-0:1.000014-6.el8.noarch",
        "perl-Moo-0:2.003004-7.el8.noarch",
        "perl-MooX-HandlesVia-0:0.001008-16.el8.noarch",
        "perl-Pod-Readme-0:1.2.3-1.el8.noarch",
        "perl-Test-CleanNamespaces-0:0.24-6.el8.noarch",
        "perl-Test-Modern-0:0.013-15.el8.noarch"
    ],
    "perl-SUPER.noarch": [
        "perl-Test-MockModule-0:0.170.0-5.el8.noarch"
    ],
    "perl-Scope-Guard.noarch": [
        "perl-DBIx-Class-0:0.082842-4.el8.noarch",
        "perl-autobox-0:3.0.1-7.el8.x86_64"
    ],
    "perl-Specio.noarch": [
        "perl-Log-Dispatch-0:2.68-1.el8.noarch"
    ],
    "perl-Sub-Exporter-Progressive.noarch": [
        "perl-Const-Fast-0:0.014-19.el8.noarch",
        "perl-File-Map-0:0.67-3.el8.x86_64"
    ],
    "perl-Sub-Identify.x86_64": [
        "perl-Devel-OverloadInfo-0:0.005-7.el8.noarch",
        "perl-Moose-0:2.2011-9.el8.x86_64",
        "perl-Test-CleanNamespaces-0:0.24-6.el8.noarch",
        "perl-namespace-sweep-0:0.006-10.el8.noarch"
    ],
    "perl-Sub-Name.x86_64": [
        "perl-Class-Accessor-Grouped-0:0.10014-10.el8.noarch",
        "perl-DBIx-Class-0:0.082842-4.el8.noarch",
        "perl-Devel-Declare-0:0.006019-14.el8.x86_64",
        "perl-Moose-0:2.2011-9.el8.x86_64",
        "perl-MooseX-Types-0:0.50-9.el8.noarch",
        "perl-Object-ID-0:0.1.2-18.el8.noarch",
        "perl-Package-Variant-0:1.003002-15.el8.noarch",
        "perl-Sub-Exporter-ForMethods-0:0.100052-13.el8.noarch",
        "perl-perl5i-0:2.13.2-12.el8.x86_64"
    ],
    "perl-Switch.noarch": [
        "awstats-0:7.8-2.el8.noarch",
        "perl-X2Go-Server-DB-0:4.1.0.3-17.el8.1.x86_64"
    ],
    "perl-Taint-Runtime.x86_64": [
        "munin-0:2.0.66-1.el8.noarch"
    ],
    "perl-Test-Deep.noarch": [
        "perl-Net-Amazon-S3-tests-0:0.98-1.el8.noarch",
        "perl-PDL-tests-0:2.32.0-1.el8.x86_64",
        "perl-SQL-Abstract-0:1.87-2.el8.noarch",
        "perl-Shared-Examples-Net-Amazon-S3-0:0.98-1.el8.noarch",
        "perl-Test-Base-0:0.89-9.el8.noarch",
        "perl-Test-Modern-0:0.013-15.el8.noarch",
        "perl-Test-Most-0:0.35-11.el8.noarch"
    ],
    "perl-Test-Differences.noarch": [
        "perl-Test-JSON-0:0.11-26.el8.noarch",
        "perl-Test-Most-0:0.35-11.el8.noarch"
    ],
    "perl-Test-Exception.noarch": [
        "perl-Convert-Base32-0:0.06-5.el8.noarch",
        "perl-DateTime-Format-Flexible-tests-0:0.34-1.el8.noarch",
        "perl-Net-Amazon-S3-tests-0:0.98-1.el8.noarch",
        "perl-PDL-tests-0:2.32.0-1.el8.x86_64",
        "perl-Test-Most-0:0.35-11.el8.noarch",
        "perl-Test-RDF-Trine-Store-0:1.019-8.el8.noarch"
    ],
    "perl-Test-Fatal.noarch": [
        "perl-Devel-REPL-tests-0:1.003029-1.el8.noarch",
        "perl-GeoIP2-tests-0:2.006002-6.el8.noarch",
        "perl-MaxMind-DB-Reader-XS-tests-0:1.000009-1.el8.noarch",
        "perl-MaxMind-DB-Reader-tests-0:1.000014-6.el8.noarch",
        "perl-Net-Works-tests-0:0.22-6.el8.noarch",
        "perl-Test-Bits-tests-0:0.02-6.el8.noarch",
        "perl-Test-Modern-0:0.013-15.el8.noarch"
    ],
    "perl-Test-LongString.noarch": [
        "perl-Test-Modern-0:0.013-15.el8.noarch",
        "perl-Test-WWW-Mechanize-0:1.54-2.el8.noarch"
    ],
    "perl-Test-NoWarnings.noarch": [
        "perl-DateTime-Format-Flexible-tests-0:0.34-1.el8.noarch"
    ],
    "perl-Test-Pod.noarch": [
        "imapsync-0:2.140-2.el8.noarch",
        "perl-Test-Distribution-0:2.00-32.el8.noarch",
        "perl-Test-Modern-0:0.013-15.el8.noarch",
        "perl-Test-Pod-LinkCheck-0:0.008-20.el8.noarch"
    ],
    "perl-Test-Pod-Coverage.noarch": [
        "perl-Test-Distribution-0:2.00-32.el8.noarch",
        "perl-Test-Modern-0:0.013-15.el8.noarch"
    ],
    "perl-Test-Requires.noarch": [
        "perl-MaxMind-DB-Reader-XS-tests-0:1.000009-1.el8.noarch",
        "perl-MaxMind-DB-Reader-tests-0:1.000014-6.el8.noarch"
    ],
    "perl-Test-Warn.noarch": [
        "perl-Inline-C-tests-0:0.82-1.el8.noarch",
        "perl-PDL-tests-0:2.32.0-1.el8.x86_64",
        "perl-Test-Most-0:0.35-11.el8.noarch"
    ],
    "perl-Test-Warnings.noarch": [
        "perl-Net-Amazon-S3-tests-0:0.98-1.el8.noarch",
        "perl-Test-Modern-0:0.013-15.el8.noarch"
    ],
    "perl-Text-CharWidth.x86_64": [
        "debconf-0:1.5.79-1.el8.noarch"
    ],
    "perl-Text-WrapI18N.noarch": [
        "debconf-0:1.5.79-1.el8.noarch"
    ],
    "perl-Tie-IxHash.noarch": [
        "perl-ExtUtils-XSBuilder-0:0.28-34.el8.noarch",
        "perl-XML-TreePP-0:0.43-14.el8.noarch",
        "perl-YAML-PP-0:0.026-1.el8.noarch"
    ],
    "perl-Tk.x86_64": [
        "clusterssh-0:4.16-1.el8.noarch",
        "perl-PAR-Packer-Tk-0:1.052-2.el8.noarch",
        "perl-Tk-TableMatrix-0:1.23-37.el8.x86_64"
    ],
    "perl-Types-Serialiser.noarch": [
        "perl-CBOR-XS-0:1.71-4.el8.x86_64",
        "perl-XML-Hash-LX-0:0.70.0-5.el8.noarch"
    ],
    "perl-XML-DOM.noarch": [
        "edg-mkgridmap-0:4.0.4-9.el8.noarch",
        "kde-dev-scripts-0:21.08.3-1.el8.noarch",
        "nordugrid-arc-nordugridmap-0:6.15.1-1.el8.noarch",
        "perl-HTTP-DAV-0:0.49-6.el8.noarch",
        "perl-Log-Log4perl-Config-DOMConfigurator-0:1.50-1.el8.noarch",
        "perl-XML-Generator-0:1.04-30.el8.noarch"
    ],
    "perl-XML-Twig.noarch": [
        "perl-GraphViz-XML-0:2.24-12.el8.noarch",
        "perl-Nmap-Parser-0:1.37-8.el8.noarch",
        "perl-Test-Valgrind-0:1.19-12.el8.noarch",
        "perl-Test-XML-0:0.08-16.el8.noarch"
    ],
    "perl-YAML-LibYAML.x86_64": [
        "perl-Config-Any-0:0.32-10.el8.noarch",
        "perl-Cpanel-JSON-XS-0:4.14-1.el8.x86_64",
        "perl-Fsdb-2:3.0-1.el8.noarch",
        "perl-Inline-C-tests-0:0.82-1.el8.noarch",
        "perl-YAML-PP-0:0.026-1.el8.noarch"
    ],
    "perl-YAML-Syck.x86_64": [
        "perl-Cpanel-JSON-XS-0:4.14-1.el8.x86_64",
        "perl-Data-Serializer-0:0.60-14.el8.noarch",
        "perl-YAML-PP-0:0.026-1.el8.noarch",
        "shelldap-0:1.4.0-6.el8.noarch"
    ],
    "perl-YAML-Tiny.noarch": [
        "fusioninventory-agent-task-inventory-0:2.6-1.el8.x86_64",
        "perl-FusionInventory-Agent-0:2.6-1.el8.noarch",
        "perl-PAR-Dist-0:0.49-23.el8.noarch",
        "perl-YAML-PP-0:0.026-1.el8.noarch"
    ],
    "perl-common-sense.x86_64": [
        "perl-AnyEvent-HTTP-0:2.24-5.el8.noarch",
        "perl-BDB-0:1.92-12.el8.x86_64",
        "perl-CBOR-XS-0:1.71-4.el8.x86_64",
        "perl-Convert-UUlib-3:1.8-1.el8.x86_64",
        "perl-Coro-0:6.570-2.el8.x86_64",
        "perl-EV-0:4.22-3.el8.x86_64",
        "perl-IO-AIO-0:4.72-1.el8.x86_64",
        "perl-Linux-Inotify2-0:2.1-6.el8.x86_64",
        "treescan-0:4.72-1.el8.noarch"
    ],
    "perl-namespace-autoclean.noarch": [
        "perl-Devel-REPL-0:1.003029-1.el8.noarch",
        "perl-Devel-REPL-Plugin-Completion-0:1.003029-1.el8.noarch",
        "perl-Devel-REPL-Plugin-CompletionDriver-INC-0:1.003029-1.el8.noarch",
        "perl-Devel-REPL-Plugin-CompletionDriver-Keywords-0:1.003029-1.el8.noarch",
        "perl-Devel-REPL-Plugin-DDC-0:1.003029-1.el8.noarch",
        "perl-Devel-REPL-Plugin-DDS-0:1.003029-1.el8.noarch",
        "perl-Devel-REPL-Plugin-Interrupt-0:1.003029-1.el8.noarch",
        "perl-Devel-REPL-Plugin-LexEnv-0:1.003029-1.el8.noarch",
        "perl-Devel-REPL-Plugin-MultiLine-PPI-0:1.003029-1.el8.noarch",
        "perl-Devel-REPL-Plugin-Nopaste-0:1.003029-1.el8.noarch",
        "perl-Devel-REPL-Plugin-PPI-0:1.003029-1.el8.noarch",
        "perl-Devel-REPL-Plugin-Refresh-0:1.003029-1.el8.noarch",
        "perl-Log-Dispatch-0:2.68-1.el8.noarch",
        "perl-MaxMind-DB-Common-0:0.040001-7.el8.noarch",
        "perl-MaxMind-DB-Reader-0:1.000014-6.el8.noarch",
        "perl-MaxMind-DB-Reader-XS-0:1.000009-1.el8.x86_64",
        "perl-MooseX-ConfigFromFile-0:0.14-17.el8.noarch",
        "perl-MooseX-Getopt-0:0.74-6.el8.noarch",
        "perl-MooseX-Object-Pluggable-0:0.0014-18.el8.noarch",
        "perl-MooseX-Role-Parameterized-0:1.11-2.el8.noarch",
        "perl-MooseX-Role-WithOverloading-0:0.17-15.el8.x86_64",
        "perl-MooseX-StrictConstructor-0:0.21-12.el8.noarch",
        "perl-MooseX-Types-0:0.50-9.el8.noarch",
        "perl-MooseX-Types-DateTime-0:0.13-15.el8.noarch",
        "perl-MooseX-Types-DateTime-MoreCoercions-0:0.15-15.el8.noarch",
        "perl-MooseX-Types-Path-Tiny-0:0.012-10.el8.noarch",
        "perl-Net-Works-0:0.22-6.el8.noarch",
        "perl-Pod-Coverage-Moose-0:0.07-13.el8.noarch",
        "perl-Pod-Readme-0:1.2.3-1.el8.noarch",
        "perl-Test-TempDir-0:0.11-1.el8.noarch"
    ],
    "perl-namespace-clean.noarch": [
        "perl-App-Nopaste-0:1.013-4.el8.noarch",
        "perl-Crypt-Random-Source-0:0.14-11.el8.noarch",
        "perl-DBIx-Class-0:0.082842-4.el8.noarch",
        "perl-Data-Stream-Bulk-0:0.11-23.el8.noarch",
        "perl-Devel-Cover-0:1.33-4.el8.x86_64",
        "perl-Devel-PartialDump-0:0.20-8.el8.noarch",
        "perl-GIS-Distance-0:0.19-1.el8.noarch",
        "perl-GIS-Distance-Fast-0:0.15-1.el8.x86_64",
        "perl-GeoIP2-0:2.006002-6.el8.noarch",
        "perl-HTML-Restrict-0:3.0.0-2.el8.noarch",
        "perl-MooseX-Role-Parameterized-0:1.11-2.el8.noarch",
        "perl-MooseX-Role-WithOverloading-0:0.17-15.el8.x86_64",
        "perl-MooseX-Types-DateTime-0:0.13-15.el8.noarch",
        "perl-MooseX-Types-DateTime-MoreCoercions-0:0.15-15.el8.noarch",
        "perl-Net-Amazon-S3-0:0.98-1.el8.noarch",
        "perl-PDL-0:2.32.0-1.el8.x86_64",
        "perl-Test-LWP-UserAgent-0:0.033-9.el8.noarch"
    ],
    "perltidy.noarch": [
        "perl-Perl-Critic-0:1.134-5.el8.noarch"
    ],
    "poppler-cpp.x86_64": [
        "efl-0:1.25.1-9.el8.x86_64",
        "pdfgrep-0:2.1.2-2.el8.x86_64"
    ],
    "poppler-qt5.x86_64": [
        "booksorg-0:0.3.1-3.el8.x86_64",
        "cantor-0:19.12.2-2.el8.x86_64",
        "cantor-R-0:19.12.2-2.el8.x86_64",
        "cantor-libs-0:19.12.2-2.el8.x86_64",
        "kf5-kfilemetadata-0:5.88.0-1.el8.x86_64",
        "kile-0:2.9.93-7.el8.x86_64",
        "okular-part-0:21.08.3-1.el8.x86_64",
        "python3-cantor-0:19.12.2-2.el8.x86_64",
        "qpdfview-qt5-0:0.4.18-9.el8.x86_64"
    ],
    "ppp.i686": [
        "NetworkManager-fortisslvpn-0:1.2.10-4.el8.x86_64",
        "NetworkManager-l2tp-0:1.20.4-1.el8.x86_64",
        "NetworkManager-pptp-1:1.2.8-1.el8.3.x86_64",
        "ocsinventory-agent-0:2.9.3-1.el8.x86_64",
        "openfortivpn-0:1.17.0-3.el8.x86_64",
        "pptpd-0:1.4.0-23.el8.x86_64",
        "xl2tpd-0:1.3.15-1.el8.x86_64"
    ],
    "protobuf-c-devel.i686": [
        "bind9.16-devel-32:9.16.23-0.7.el8.i686",
        "yara-devel-0:4.1.3-1.el8.x86_64"
    ],
    "protobuf-c-devel.x86_64": [
        "bind9.16-devel-32:9.16.23-0.7.el8.x86_64",
        "riemann-c-client-devel-0:1.9.0-13.el8.x86_64",
        "yara-devel-0:4.1.3-1.el8.x86_64"
    ],
    "ptscotch-mpich.x86_64": [
        "MUMPS-mpich-0:5.3.5-1.el8.x86_64",
        "MUMPS-mpich-examples-0:5.3.5-1.el8.x86_64",
        "hypre-mpich-0:2.18.1-1.el8.x86_64",
        "petsc-mpich-0:3.16.0-4.el8.x86_64",
        "python3-petsc-mpich-0:3.16.0-4.el8.x86_64",
        "superlu_dist-mpich-0:6.1.1-1.el8.x86_64"
    ],
    "ptscotch-mpich-devel.x86_64": [
        "hypre-mpich-devel-0:2.18.1-1.el8.x86_64",
        "superlu_dist-mpich-devel-0:6.1.1-1.el8.x86_64"
    ],
    "ptscotch-mpich-devel-parmetis.x86_64": [
        "superlu_dist-mpich-devel-0:6.1.1-1.el8.x86_64"
    ],
    "ptscotch-openmpi.x86_64": [
        "MUMPS-openmpi-0:5.3.5-1.el8.x86_64",
        "MUMPS-openmpi-examples-0:5.3.5-1.el8.x86_64",
        "hypre-openmpi-0:2.18.1-1.el8.x86_64",
        "petsc-openmpi-0:3.16.0-4.el8.x86_64",
        "python3-petsc-openmpi-0:3.16.0-4.el8.x86_64",
        "superlu_dist-openmpi-0:6.1.1-1.el8.x86_64"
    ],
    "ptscotch-openmpi-devel.x86_64": [
        "hypre-openmpi-devel-0:2.18.1-1.el8.x86_64"
    ],
    "python3-Cython.x86_64": [
        "mlpack-python3-0:3.4.2-16.el8.x86_64",
        "python3-autowrap-0:0.22.3-1.el8.noarch",
        "python3-calcephpy-0:3.5.1-1.el8.x86_64",
        "python3-netcdf4-0:1.5.2-1.el8.x86_64"
    ],
    "python3-bind9.16.noarch": [
        "bind9.16-dnssec-utils-32:9.16.23-0.7.el8.x86_64"
    ],
    "python3-greenlet.i686": [
        "python3-bpython-0:0.20.1-3.el8.noarch",
        "python3-eventlet-0:0.26.0-1.el8.noarch",
        "python3-neovim-0:0.4.3-1.el8.noarch",
        "uwsgi-plugin-python3-greenlet-0:2.0.20-1.el8.x86_64"
    ],
    "python3-httplib2.noarch": [
        "did-0:0.19-1.el8.noarch",
        "python3-certbot-dns-google-0:1.22.0-1.el8.noarch",
        "python3-google-api-client-1:1.6.7-10.el8.noarch",
        "python3-impacket-0:0.9.22-4.el8.noarch",
        "python3-oauth2client-0:4.1.3-9.el8.noarch"
    ],
    "python3-iso8601.noarch": [
        "python3-colander-0:1.7.0-2.el8.noarch"
    ],
    "python3-markdown.noarch": [
        "bodhi-server-0:4.0.2-2.el8.1.noarch",
        "lv2-devel-0:1.18.0-1.el8.x86_64",
        "netbox-0:2.11.10-1.el8.noarch",
        "pagure-0:5.13.3-2.el8.noarch",
        "python3-apprise-0:0.9.9-1.el8.noarch",
        "python3-markdown-include-0:0.6.0-2.el8.noarch",
        "tmt-test-convert-0:1.14.0-1.el8.noarch"
    ],
    "python3-mock.noarch": [
        "limnoria-0:20210411-1.el8.noarch",
        "python3-kubernetes-tests-1:11.0.0-6.el8.noarch"
    ],
    "python3-mpich.x86_64": [
        "python3-mpi4py-mpich-0:3.0.2-5.el8.x86_64"
    ],
    "python3-openmpi.x86_64": [
        "python3-mpi4py-openmpi-0:3.0.2-5.el8.x86_64"
    ],
    "python3-packaging.noarch": [
        "borgbackup-0:1.1.17-1.el8.x86_64",
        "cekit-0:4.1.0-1.el8.noarch",
        "python3-drf-yasg-0:1.20.0-1.el8.noarch",
        "python3-packit-0:0.52.0-1.el8.noarch"
    ],
    "python3-pillow.i686": [
        "PySolFC-0:2.15.0-2.el8.noarch",
        "azote-0:1.9.2-2.el8.noarch",
        "lollypop-0:1.1.97.3-1.el8.noarch",
        "netbox-0:2.11.10-1.el8.noarch",
        "pagure-0:5.13.3-2.el8.noarch",
        "python3-cairosvg-0:2.5.2-3.el8.noarch",
        "python3-img2pdf-0:0.4.0-3.el8.noarch",
        "python3-matplotlib-0:3.0.3-4.el8.x86_64",
        "python3-nudepy-0:0.4-4.el8.x86_64",
        "python3-openslide-0:1.1.2-1.el8.x86_64",
        "python3-wxpython4-0:4.0.7-13.el8.x86_64",
        "zbar-python3-0:0.23-11.el8.x86_64"
    ],
    "python3-pillow-tk.x86_64": [
        "PySolFC-0:2.15.0-2.el8.noarch"
    ],
    "python3-pyxattr.x86_64": [
        "python3-collectd_cvmfs-0:1.3.3-1.el8.noarch",
        "python3-kiwi-0:9.24.42-1.el8.noarch",
        "rdiff-backup-0:2.0.5-2.el8.x86_64"
    ],
    "python3-qt5-devel.i686": [
        "python3-qscintilla-qt5-devel-0:2.11.2-6.el8.noarch"
    ],
    "python3-qt5-devel.x86_64": [
        "python3-qscintilla-qt5-devel-0:2.11.2-6.el8.noarch"
    ],
    "python3-setuptools_scm.noarch": [
        "python3-setuptools_scm_git_archive-0:1.1-4.el8.noarch"
    ],
    "python3-snowballstemmer.noarch": [
        "python3-pydocstyle-0:6.0.0-4.el8.noarch"
    ],
    "python3-sphinx.noarch": [
        "python-sphinx-latex-1:1.7.6-2.el8.noarch",
        "python3-catkin-sphinx-0:0.3.1-1.el8.noarch",
        "python3-cornice-sphinx-1:0.3-8.el8.noarch",
        "python3-ipython-sphinx-0:7.16.1-1.el8.noarch",
        "python3-numpydoc-0:0.9.2-1.el8.noarch",
        "python3-recommonmark-0:0.6.0-3.git.el8.noarch",
        "python3-sphinx-autodoc-typehints-0:1.10.3-1.el8.noarch",
        "python3-sphinx-bootstrap-theme-0:0.8.1-1.el8.noarch",
        "python3-sphinx-notfound-page-0:0.4-5.el8.noarch",
        "python3-sphinx-removed-in-0:0.2.1-1.el8.noarch",
        "python3-sphinx-testing-0:1.0.1-6.el8.noarch",
        "python3-sphinx_ansible_theme-0:0.3.2-1.el8.noarch",
        "python3-sphinx_lv2_theme-0:1.0.0-2.el8.noarch",
        "python3-sphinxcontrib-asyncio-0:0.2.0-2.el8.noarch",
        "python3-sphinxcontrib-trio-0:1.1.2-1.el8.noarch"
    ],
    "python3-sphinx_rtd_theme.noarch": [
        "charliecloud-doc-0:0.26-1.el8.noarch",
        "python3-sphinx_ansible_theme-0:0.3.2-1.el8.noarch"
    ],
    "qgpgme-devel.i686": [
        "kf5-libkleo-devel-0:21.08.3-1.el8.x86_64"
    ],
    "qgpgme-devel.x86_64": [
        "kf5-libkleo-devel-0:21.08.3-1.el8.x86_64"
    ],
    "qhull-devel.i686": [
        "pcl-devel-0:1.11.1-4.el8.x86_64"
    ],
    "qhull-devel.x86_64": [
        "pcl-devel-0:1.11.1-4.el8.x86_64"
    ],
    "qt5-devel.noarch": [
        "libqxt-qt5-devel-0:0.7.0-0.19.20130718giteaf6872f6ad4.el8.x86_64",
        "qtiocompressor-devel-0:2.3.1-19.el8.x86_64"
    ],
    "rubygem-rspec.noarch": [
        "rubygem-rspec-fire-0:1.3.0-1.el8.noarch"
    ],
    "rubygem-rspec-expectations.noarch": [
        "rubygem-aruba-0:0.14.14-1.el8.1.noarch"
    ],
    "scotch.x86_64": [
        "MUMPS-0:5.3.5-1.el8.x86_64",
        "MUMPS-examples-0:5.3.5-1.el8.x86_64",
        "MUMPS-mpich-0:5.3.5-1.el8.x86_64",
        "MUMPS-mpich-examples-0:5.3.5-1.el8.x86_64",
        "MUMPS-openmp-0:5.3.5-1.el8.x86_64",
        "MUMPS-openmp-examples-0:5.3.5-1.el8.x86_64",
        "MUMPS-openmpi-0:5.3.5-1.el8.x86_64",
        "MUMPS-openmpi-examples-0:5.3.5-1.el8.x86_64",
        "superlu_dist-mpich-0:6.1.1-1.el8.x86_64",
        "superlu_dist-openmpi-0:6.1.1-1.el8.x86_64"
    ],
    "snappy-devel.i686": [
        "libarrow-devel-0:8.0.0-1.el8.x86_64",
        "libkdumpfile-devel-0:0.4.1-5.el8.x86_64"
    ],
    "snappy-devel.x86_64": [
        "libarrow-devel-0:8.0.0-1.el8.x86_64",
        "libkdumpfile-devel-0:0.4.1-5.el8.x86_64"
    ],
    "spirv-tools-libs.x86_64": [
        "libvkd3d-shader-0:1.2-3.el8.x86_64"
    ],
    "taglib-devel.i686": [
        "taglib-extras-devel-0:1.0.1-21.el8.x86_64"
    ],
    "taglib-devel.x86_64": [
        "taglib-extras-devel-0:1.0.1-21.el8.x86_64"
    ],
    "texinfo.x86_64": [
        "gnulib-devel-0:0-31.20200107git.el8.noarch",
        "octave-6:5.2.0-1.el8.x86_64"
    ],
    "texinfo-tex.x86_64": [
        "R-core-devel-0:4.1.3-1.el8.x86_64"
    ],
    "tinycdb.x86_64": [
        "pdns-backend-tinydns-0:4.6.2-1.el8.x86_64"
    ],
    "tinyxml2.x86_64": [
        "fuse-encfs-0:1.9.5-5.el8.x86_64",
        "libmediainfo-0:22.03-1.el8.x86_64"
    ],
    "transfig.x86_64": [
        "fig2ps-0:1.5-16.el8.noarch",
        "xfig-0:3.2.7b-3.el8.x86_64"
    ],
    "uid_wrapper.x86_64": [
        "libebml-devel-0:1.3.7-2.el8.x86_64",
        "libmatroska-devel-0:1.5.0-1.el8.x86_64"
    ],
    "web-assets-filesystem.noarch": [
        "js-jquery-0:3.6.0-1.el8.noarch",
        "js-jquery-mousewheel-0:3.1.13-1.el8.noarch",
        "js-jquery-ui-0:1.13.0-1.el8.noarch",
        "js-jquery-ui-touch-punch-0:0.2.3-0.10.20141219git4bc0091.el8.noarch",
        "js-jsroot-0:6.3.4-1.el8.noarch",
        "js-uglify3-0:3.15.4-1.el8.noarch",
        "mathjax-0:2.7.4-2.el8.noarch",
        "python3-sphinx-bootstrap-theme-0:0.8.1-1.el8.noarch"
    ],
    "xapian-core.i686": [
        "dovecot-fts-xapian-0:1.5.2-1.el8.x86_64"
    ],
    "xcb-util-image-devel.i686": [
        "xcb-util-cursor-devel-0:0.1.3-9.el8.x86_64"
    ],
    "xcb-util-image-devel.x86_64": [
        "xcb-util-cursor-devel-0:0.1.3-9.el8.x86_64"
    ],
    "xcb-util-renderutil-devel.i686": [
        "xcb-util-cursor-devel-0:0.1.3-9.el8.x86_64"
    ],
    "xcb-util-renderutil-devel.x86_64": [
        "xcb-util-cursor-devel-0:0.1.3-9.el8.x86_64"
    ],
    "xhtml1-dtds.noarch": [
        "librpminspect-0:1.9-1.el8.x86_64",
        "rpminspect-data-centos-1:1.1-1.el8.noarch",
        "rpminspect-data-fedora-1:1.8-1.el8.noarch"
    ],
    "xmlsec1-gcrypt.x86_64": [
        "aqbanking-0:6.1.4-1.el8.x86_64"
    ],
    "xmlsec1-gnutls.x86_64": [
        "aqbanking-0:6.1.4-1.el8.x86_64"
    ],
    "xorg-x11-apps.x86_64": [
        "ddd-0:3.3.12-33.el8.x86_64",
        "plasma-workspace-0:5.23.3-2.el8.x86_64",
        "x2goserver-xsession-0:4.1.0.3-17.el8.1.noarch"
    ],
    "xz-lzma-compat.x86_64": [
        "dpkg-dev-0:1.20.9-4.el8.noarch",
        "perl-Archive-Extract-lzma-unlzma-1:0.88-1.el8.noarch"
    ]
}